20

58
58
-1
58
-1
58
-2
58
-2
58
-1
-1

68
-1
68
-1
68
-1
68
-1
68
-1
68
-1

95
-1
95
-1
95
-1
95
-1
95
-1
95
-1

121
-1
121
-1
121
-1
121
-1
121
-1
121
-1

108
-1
108
-1
108
-1
108
-1
108
-1
108
-1

111
-1
111
-1
111
-1
111
-1
111
-1
111
-1

81
-1
81
-1
81
-1
81
-1
81
-1
81
-1

27
27
-1
27
27
27
-4
27
-1
27
-1
27

5
5
5
5
5
5
5
5
5
5
5
5

37
37
-1
-1
37
37
37
-2
37
-2
37
-2

40
40
-1
40
40
-3
40
-1
-1
-1
40
-1

9
9
9
9
-1
9
-4
9
9
9
9
-1

67
-1
67
-1
67
-1
67
-1
67
-1
67
-1

28
-1
28
28
28
-1
28
28
-4
28
-1
28

38
38
38
-3
-1
38
38
-3
38
-1
38
-2

52
52
-2
52
-1
52
-1
-1
52
52
-1
52

89
-1
89
-1
89
-1
89
-1
89
-1
89
-1

8
8
8
8
8
8
8
8
8
-9
8
-9

72
-1
72
-1
72
-1
72
-1
72
-1
72
-1

50
-1
50
50
-2
-1
50
50
-1
-1
50
50
